<svg version="1.1" id="Layer_1" xmlns="http://www.w3.org/2000/svg" xmlns:xlink="http://www.w3.org/1999/xlink" x="0px" y="0px"
	 width="100%" viewBox="0 0 512 512" enable-background="new 0 0 512 512" xml:space="preserve">
<path fill="#000000" opacity="1.000000" stroke="none" 
	d="
M513.000000,189.531342 
	C509.236206,193.751190 509.304108,199.058167 507.612091,203.627777 
	C504.415222,212.261368 504.627502,212.337204 495.443481,212.338806 
	C467.120026,212.343704 438.795807,212.459167 410.473663,212.269882 
	C404.490173,212.229889 400.585297,214.529526 398.267548,219.817886 
	C391.929321,234.279648 385.625214,248.756409 379.335663,263.239410 
	C378.160767,265.944885 377.214294,268.767029 374.662903,271.288666 
	C370.832123,266.275726 369.512512,260.552887 367.191742,255.358597 
	C361.975739,243.684296 357.050690,231.880112 351.987091,220.137466 
	C350.119202,215.805786 347.564087,212.184204 342.186371,212.410019 
	C337.932495,212.588638 333.836273,216.386230 332.644684,221.388687 
	C329.453583,234.785233 326.435699,248.222916 323.316284,261.636658 
	C318.354858,282.971252 313.364594,304.299133 308.395996,325.632080 
	C308.094177,326.927917 307.867096,328.238251 306.405579,329.001587 
	C303.883331,326.477600 303.890778,322.959351 302.901337,319.882568 
	C291.611115,284.774139 280.386444,249.644592 269.158600,214.516098 
	C261.825531,191.573135 254.522308,168.620667 247.182007,145.680038 
	C246.676819,144.101166 246.055756,142.546692 245.345505,141.048706 
	C243.688828,137.554596 240.647491,135.605560 237.008865,135.612930 
	C233.348663,135.620331 230.393753,137.755203 228.703522,141.139236 
	C227.816925,142.914276 227.058304,144.799973 226.567413,146.718964 
	C218.131470,179.696777 209.762558,212.691742 201.339279,245.672806 
	C199.120483,254.360413 196.761047,263.012085 194.485748,271.685364 
	C194.196030,272.789825 194.283737,274.056366 192.864090,274.691193 
	C190.942902,274.907318 190.577377,273.210266 189.974991,271.947205 
	C184.462906,260.389282 178.963058,248.825211 173.527023,237.231354 
	C170.580673,230.947433 165.766312,228.266754 158.807220,228.283508 
	C113.156731,228.393417 67.505623,228.272385 21.855427,228.431335 
	C17.298870,228.447189 15.314139,226.943512 13.459434,222.749695 
	C8.134653,210.709427 4.870594,198.090134 1.283544,185.224518 
	C1.000000,170.645767 1.000000,156.291550 1.287163,141.253555 
	C1.919022,139.661285 2.384332,138.779205 2.590014,137.840240 
	C5.012987,126.778976 8.122419,115.911209 13.059617,105.706322 
	C22.740330,85.696869 35.914646,68.310364 53.374992,54.436020 
	C65.807961,44.556526 79.477165,36.748661 94.540741,31.485929 
	C111.349159,25.613605 128.622360,23.247263 146.415863,23.596495 
	C169.463531,24.048851 190.508636,30.458246 209.402466,43.653557 
	C229.089951,57.403152 243.391907,75.641518 253.459183,97.316513 
	C254.175919,98.859627 254.758865,100.573792 256.754913,100.603409 
	C259.269440,100.640694 259.797974,98.477852 260.671082,96.681770 
	C270.103302,77.278809 282.579926,60.214222 299.752106,46.935081 
	C314.034485,35.890583 330.045593,28.684528 347.936890,25.474064 
	C361.658936,23.011740 375.319580,23.198217 389.075531,24.591196 
	C407.674988,26.474644 425.018066,32.257580 441.195526,41.490112 
	C456.016144,49.948280 469.215515,60.320641 480.136017,73.668861 
	C489.151215,84.688148 496.673157,96.459885 502.536102,109.411041 
	C507.010437,119.294746 508.877319,130.023956 513.000000,140.000000 
	C513.000000,156.354233 513.000000,172.708450 513.000000,189.531342 
z"/>
<path fill="#000000" opacity="1.000000" stroke="none" 
	d="
M209.483612,292.338013 
	C218.903473,255.756088 228.263824,219.532181 237.624176,183.308258 
	C241.630402,188.165970 242.868561,193.503159 244.521622,198.653259 
	C251.630264,220.800186 258.654816,242.974121 265.701172,265.141022 
	C276.120972,297.920471 286.504944,330.711365 296.978973,363.473480 
	C298.577484,368.473541 299.780029,373.718842 304.741882,376.933777 
	C308.729126,379.517181 311.893433,378.586121 314.991333,375.538757 
	C317.749359,372.825653 318.754486,369.326630 319.576477,365.743561 
	C327.621155,330.678314 335.655060,295.610565 343.660889,260.536438 
	C344.000671,259.047852 344.456818,257.671265 345.416504,256.457214 
	C347.501831,256.724609 347.932678,258.529388 348.552368,259.982361 
	C353.572052,271.752563 358.517731,283.554352 363.495972,295.342285 
	C364.013702,296.568207 364.588318,297.770508 365.150818,298.977142 
	C367.227356,303.431702 370.253204,307.440338 375.429169,307.187134 
	C380.551849,306.936523 383.286743,302.656036 385.219666,298.199066 
	C394.411560,277.004395 403.606293,255.810928 412.740265,234.591324 
	C413.569916,232.663834 414.702454,231.680435 416.840393,231.683960 
	C442.168915,231.725769 467.497437,231.729538 492.825958,231.771240 
	C493.448883,231.772278 494.071289,232.093735 495.104126,232.379028 
	C494.527588,237.320038 491.345642,240.965286 489.064301,244.832016 
	C478.211731,263.226654 465.123260,279.947266 450.832001,295.830322 
	C438.447601,309.594208 425.242126,322.529816 411.949738,335.348175 
	C395.077789,351.618347 377.891876,367.580383 360.710052,383.523163 
	C342.259735,400.642914 325.366791,419.199707 308.091766,437.419434 
	C302.829010,442.970001 297.298340,448.237274 292.216858,453.997192 
	C282.208344,465.341888 271.521179,476.085327 261.239258,487.192749 
	C258.203033,490.472748 255.891800,490.602020 252.718765,487.211914 
	C234.302597,467.536163 215.871368,447.875549 197.254486,428.385132 
	C180.683121,411.036224 163.701874,394.113190 146.655869,377.260010 
	C131.052460,361.833099 115.036461,346.785400 98.600632,332.250977 
	C86.084892,321.183167 74.777534,308.995758 63.565018,296.741058 
	C50.899529,282.898346 38.881889,268.431305 28.920675,252.416061 
	C28.127686,251.141129 27.208069,249.961548 27.537287,248.339264 
	C29.304684,247.291687 31.176422,247.692398 32.963234,247.691132 
	C72.790131,247.662994 112.617210,247.716553 152.443726,247.587906 
	C156.439529,247.574997 158.087387,249.073486 159.720932,252.668289 
	C164.748535,263.732178 170.444061,274.491241 175.811249,285.402588 
	C179.411041,292.720856 182.958176,300.066650 186.406174,307.457397 
	C188.633774,312.232239 192.484375,314.866486 197.480164,314.468170 
	C202.076813,314.101685 204.509689,310.420715 205.716263,306.109558 
	C206.966476,301.642365 208.189285,297.167542 209.483612,292.338013 
z"/>
</svg>